<?xml version="1.0" encoding="UTF-8" standalone="no"?>
<!-- Created with Inkscape (http://www.inkscape.org/) -->

<svg
   xmlns:dc="http://purl.org/dc/elements/1.1/"
   xmlns:cc="http://creativecommons.org/ns#"
   xmlns:rdf="http://www.w3.org/1999/02/22-rdf-syntax-ns#"
   xmlns:svg="http://www.w3.org/2000/svg"
   xmlns="http://www.w3.org/2000/svg"
   xmlns:xlink="http://www.w3.org/1999/xlink"
   xmlns:sodipodi="http://sodipodi.sourceforge.net/DTD/sodipodi-0.dtd"
   xmlns:inkscape="http://www.inkscape.org/namespaces/inkscape"
   width="127.8335mm"
   height="161.73439mm"
   viewBox="0 0 127.83349 161.7344"
   version="1.1"
   id="svg8"
   inkscape:version="0.92.4 (unknown)"
   sodipodi:docname="nunet_demo_architecture.svg"
   inkscape:export-filename="/home/kabir/vveitas@gmail.com/Nunet/PoCs/nunet_demo_architecture.svg.png"
   inkscape:export-xdpi="299"
   inkscape:export-ydpi="299">
  <defs
     id="defs2">
    <inkscape:perspective
       sodipodi:type="inkscape:persp3d"
       inkscape:vp_x="-14.174107 : 117.88393 : 1"
       inkscape:vp_y="0 : 1000 : 0"
       inkscape:vp_z="182.21874 : 169.66667 : 1"
       inkscape:persp3d-origin="104.99999 : 99 : 1"
       id="perspective815" />
    <style
       id="style1876">.cls-1{fill:url(#linear-gradient);}.cls-2{fill:url(#linear-gradient-2);}.cls-3{fill:url(#linear-gradient-3);}.cls-4{fill:url(#linear-gradient-4);}.cls-5{fill:url(#linear-gradient-5);}.cls-6{fill:url(#linear-gradient-6);}.cls-7{fill:url(#linear-gradient-7);}.cls-8{fill:url(#linear-gradient-8);}.cls-9{fill:url(#linear-gradient-9);}.cls-10{fill:url(#linear-gradient-10);}.cls-11{fill:#fff;opacity:0.76;}.cls-12{fill:url(#linear-gradient-11);}.cls-13{fill:url(#linear-gradient-12);}</style>
    <linearGradient
       gradientUnits="userSpaceOnUse"
       gradientTransform="matrix(1,0,0,-1,523.98,671.32)"
       y2="551.09998"
       x2="168.13"
       y1="171.60001"
       x1="-265.32999"
       id="linear-gradient">
      <stop
         id="stop1878"
         stop-color="#4ac2ba"
         offset="0.44" />
      <stop
         id="stop1880"
         stop-color="#2e9ad6"
         offset="0.66" />
    </linearGradient>
    <linearGradient
       gradientUnits="userSpaceOnUse"
       gradientTransform="matrix(-1,0,0,1,364.56,0)"
       y2="441.94"
       x2="-17.75"
       y1="215.64"
       x1="-0.050000001"
       id="linear-gradient-2">
      <stop
         id="stop1883"
         stop-color="#00927c"
         offset="0.01" />
      <stop
         id="stop1885"
         stop-color="#1c8695"
         offset="0.65" />
      <stop
         id="stop1887"
         stop-color="#2e7ea4"
         offset="1" />
    </linearGradient>
    <linearGradient
       xlink:href="#linear-gradient-2"
       gradientTransform="matrix(1,0,0,-1,523.98,546.36)"
       y2="284.67001"
       x2="-80.610001"
       y1="259.91"
       x1="-78.669998"
       id="linear-gradient-3" />
    <linearGradient
       xlink:href="#linear-gradient-2"
       gradientTransform="matrix(1,0,0,-1,595.26,641.42)"
       y2="325.87"
       x2="-115.75"
       y1="314.76001"
       x1="-114.89"
       id="linear-gradient-4" />
    <linearGradient
       xlink:href="#linear-gradient-2"
       gradientTransform="matrix(1,0,0,-1,523.98,597.71)"
       y2="310.34"
       x2="-80.610001"
       y1="285.57999"
       x1="-78.669998"
       id="linear-gradient-5" />
    <linearGradient
       xlink:href="#linear-gradient-2"
       gradientTransform="matrix(1,0,0,-1,595.26,669.76)"
       y2="340.04001"
       x2="-115.75"
       y1="328.92001"
       x1="-114.89"
       id="linear-gradient-6" />
    <linearGradient
       xlink:href="#linear-gradient-2"
       y2="426.32001"
       x2="-84.010002"
       y1="415.89999"
       x1="-83.199997"
       id="linear-gradient-7" />
    <linearGradient
       xlink:href="#linear-gradient-2"
       gradientTransform="matrix(1,0,0,-1,595.26,699.46)"
       y2="354.89001"
       x2="-115.75"
       y1="343.76999"
       x1="-114.89"
       id="linear-gradient-8" />
    <linearGradient
       xlink:href="#linear-gradient-2"
       gradientTransform="matrix(1,0,0,-1,595.26,727.79)"
       y2="369.04999"
       x2="-115.75"
       y1="357.94"
       x1="-114.89"
       id="linear-gradient-9" />
    <linearGradient
       gradientUnits="userSpaceOnUse"
       y2="449.09"
       x2="260.22"
       y1="163.11"
       x1="272.82001"
       id="linear-gradient-10">
      <stop
         id="stop1897"
         stop-color="#1259a3"
         offset="0" />
      <stop
         id="stop1899"
         stop-color="#2e9ad6"
         offset="1" />
    </linearGradient>
    <linearGradient
       xlink:href="#linear-gradient-2"
       y2="504.31"
       x2="314.16"
       y1="344.53"
       x1="216.94"
       id="linear-gradient-11" />
    <linearGradient
       xlink:href="#linear-gradient"
       y2="486.10999"
       x2="315.69"
       y1="402.62"
       x1="225.16"
       id="linear-gradient-12" />
    <linearGradient
       inkscape:collect="always"
       xlink:href="#linear-gradient"
       id="linearGradient1978"
       gradientUnits="userSpaceOnUse"
       gradientTransform="matrix(1,0,0,-1,523.98,671.32)"
       x1="-265.32999"
       y1="171.60001"
       x2="168.13"
       y2="551.09998" />
    <linearGradient
       inkscape:collect="always"
       xlink:href="#linear-gradient-2"
       id="linearGradient1980"
       gradientUnits="userSpaceOnUse"
       gradientTransform="matrix(-1,0,0,1,364.56,0)"
       x1="-0.050000001"
       y1="215.64"
       x2="-17.75"
       y2="441.94" />
    <style
       id="style8800">.cls-1{fill:url(#linear-gradient);}.cls-2{fill:#fff;opacity:0.76;}.cls-3,.cls-6,.cls-7{fill:none;stroke-miterlimit:10;}.cls-3{stroke:#125aa3;stroke-width:10px;}.cls-4{fill:url(#linear-gradient-2);}.cls-5{fill:url(#linear-gradient-3);}.cls-6{stroke:url(#linear-gradient-4);}.cls-7{stroke:url(#linear-gradient-5);}</style>
    <linearGradient
       gradientUnits="userSpaceOnUse"
       y2="532.95001"
       x2="314.45001"
       y1="70.260002"
       x1="309.92001"
       id="linear-gradient-56">
      <stop
         id="stop8802"
         stop-color="#1259a3"
         offset="0" />
      <stop
         id="stop8804"
         stop-color="#2e9ad6"
         offset="1" />
    </linearGradient>
    <linearGradient
       gradientUnits="userSpaceOnUse"
       y2="578.62"
       x2="313.17001"
       y1="373.09"
       x1="313.17001"
       id="linear-gradient-2-2"
       gradientTransform="matrix(0.11310937,0,0,0.11310937,-21.665769,103.58176)">
      <stop
         id="stop8807"
         stop-color="#00a79d"
         offset="0.01" />
      <stop
         id="stop8809"
         stop-color="#17a1b9"
         offset="0.53" />
      <stop
         id="stop8811"
         stop-color="#2e9ad6"
         offset="1" />
    </linearGradient>
    <linearGradient
       xlink:href="#linear-gradient-56"
       y2="481.03"
       x2="313.04001"
       y1="168.66"
       x1="306.70001"
       id="linear-gradient-3-9"
       gradientTransform="matrix(0.11310937,0,0,0.11310937,57.898219,101.12491)" />
    <linearGradient
       gradientUnits="userSpaceOnUse"
       y2="355.32999"
       x2="385.07999"
       y1="355.32999"
       x1="234.09"
       id="linear-gradient-4-1">
      <stop
         id="stop8815"
         stop-color="#c8e4f1"
         offset="0" />
      <stop
         id="stop8817"
         stop-opacity="0.93"
         stop-color="#c8e4f1"
         offset="0.19" />
      <stop
         id="stop8819"
         stop-opacity="0.75"
         stop-color="#c8e4f1"
         offset="0.55" />
      <stop
         id="stop8821"
         stop-opacity="0.5"
         stop-color="#c8e4f1"
         offset="1" />
    </linearGradient>
    <linearGradient
       xlink:href="#linear-gradient-4-1"
       y2="361.67001"
       x2="360.63"
       y1="361.67001"
       x1="253.25"
       id="linear-gradient-5-2" />
    <linearGradient
       inkscape:collect="always"
       xlink:href="#linear-gradient-56"
       id="linearGradient8878"
       gradientUnits="userSpaceOnUse"
       x1="309.92001"
       y1="70.260002"
       x2="314.45001"
       y2="532.95001"
       gradientTransform="matrix(0.11310937,0,0,0.11310937,-21.665769,103.58176)" />
    <linearGradient
       inkscape:collect="always"
       xlink:href="#linear-gradient-4-1"
       id="linearGradient8880"
       gradientUnits="userSpaceOnUse"
       x1="234.09"
       y1="355.32999"
       x2="385.07999"
       y2="355.32999" />
    <linearGradient
       inkscape:collect="always"
       xlink:href="#linear-gradient-2"
       id="linearGradient2176"
       gradientTransform="matrix(1,0,0,-1,595.26,641.42)"
       x1="-114.89"
       y1="314.76001"
       x2="-115.75"
       y2="325.87" />
    <linearGradient
       inkscape:collect="always"
       xlink:href="#linear-gradient-2"
       id="linearGradient2178"
       gradientTransform="matrix(1,0,0,-1,523.98,597.71)"
       x1="-78.669998"
       y1="285.57999"
       x2="-80.610001"
       y2="310.34" />
  </defs>
  <sodipodi:namedview
     id="base"
     pagecolor="#ffffff"
     bordercolor="#666666"
     borderopacity="1.0"
     inkscape:pageopacity="0.0"
     inkscape:pageshadow="2"
     inkscape:zoom="1.979899"
     inkscape:cx="251.59733"
     inkscape:cy="307.86542"
     inkscape:document-units="mm"
     inkscape:current-layer="a5038-2"
     showgrid="false"
     inkscape:window-width="1867"
     inkscape:window-height="1056"
     inkscape:window-x="53"
     inkscape:window-y="24"
     inkscape:window-maximized="1"
     inkscape:snap-global="false"
     showguides="false"
     fit-margin-top="0"
     fit-margin-left="0"
     fit-margin-right="0"
     fit-margin-bottom="0" />
  <metadata
     id="metadata5">
    <rdf:RDF>
      <cc:Work
         rdf:about="">
        <dc:format>image/svg+xml</dc:format>
        <dc:type
           rdf:resource="http://purl.org/dc/dcmitype/StillImage" />
        <dc:title />
      </cc:Work>
    </rdf:RDF>
  </metadata>
  <g
     inkscape:label="Layer 1"
     inkscape:groupmode="layer"
     id="layer1"
     transform="translate(8.9436201,-25.113093)">
    <path
       style="fill:#ff8f1f;fill-opacity:0.92647059;stroke:#ffffff;stroke-width:2.1652379px;stroke-miterlimit:10"
       inkscape:connector-curvature="0"
       id="path1409"
       d="m 113.22079,85.686466 c 0,0 0.66986,-2.820381 0.67472,-4.320065 a 22.842868,17.919514 0 0 0 -0.66819,-4.371205 l 1.85632,-1.47156 a 2.2914578,1.7975769 0 0 0 0.40416,-2.271899 l -3.74846,-4.761149 a 2.2947173,1.8001339 0 0 0 -2.72172,-0.750484 l -2.20345,0.614963 a 22.816792,17.899059 0 0 0 -9.671076,-4.314953 l -0.37321,-1.557219 a 2.2914578,1.7975769 0 0 0 -2.247452,-1.467722 l -7.130244,-0.01662 a 2.2930874,1.7988553 0 0 0 -2.247451,1.417861 l -0.466127,1.682513 a 22.826569,17.906729 0 0 0 -9.576519,4.385269 l -2.586454,-0.466653 a 2.2947173,1.8001339 0 0 0 -2.695645,0.894951 l -3.295384,4.960594 a 2.2914578,1.7975769 0 0 0 0.570411,2.216928 l 1.717775,1.116134 a 22.97977,18.026908 0 0 0 0.04881,8.376759 l -1.740589,1.11102 a 2.296347,1.8014123 0 0 0 -0.572047,2.250168 l 3.386667,4.923517 a 2.2947173,1.8001339 0 0 0 2.659774,0.873214 L 74.8347,93.935375 a 22.829829,17.909286 0 0 0 10.16001,4.662703 l 0.301512,1.715762 a 2.2246371,1.7451581 0 0 0 2.182255,1.41913 l 6.921635,0.0165 a 2.2295265,1.7489937 0 0 0 2.182266,-1.37566 l 0.488941,-1.754117 c 0,0 7.130251,-2.351163 9.876391,-4.438962 l 2.01604,0.575323 a 2.296347,1.8014123 0 0 0 2.75431,-0.767103 l 3.64581,-4.807172 a 2.296347,1.8014123 0 0 0 -0.41071,-2.239962 z"
       class="cls-9" />
    <g
       id="g2537"
       transform="translate(5.0054029,1.3229167)">
      <g
         transform="matrix(0.13229166,0,0,0.13229167,-28.894012,39.730273)"
         id="g1972">
        <path
           style="fill:url(#linearGradient1978)"
           inkscape:connector-curvature="0"
           class="cls-1"
           d="M 396,226.13 H 498.24 V 445.19 H 396 a 5.67,5.67 0 0 1 -5.67,-5.67 V 231.79 a 5.67,5.67 0 0 1 5.67,-5.67 z"
           transform="rotate(-180,444.27,335.66)"
           id="path1908" />
        <path
           style="opacity:0.76000001;fill:url(#linearGradient1980)"
           inkscape:connector-curvature="0"
           class="cls-2"
           d="m 390.3,226.13 -31,18.13 a 8.69,8.69 0 0 0 -4.3,7.49 v 158.56 a 8.67,8.67 0 0 0 3,6.52 l 32.35,28.36 z"
           id="path1910" />
        <rect
           style="fill:url(#linear-gradient-3);stroke:#125aa3;stroke-width:10px;stroke-miterlimit:10"
           class="cls-3"
           x="399.95999"
           y="264.66"
           width="88.610001"
           height="17.040001"
           transform="rotate(-180,444.27,273.18)"
           id="rect1912" />
        <rect
           style="fill:url(#linearGradient2176)"
           class="cls-4"
           x="471.25"
           y="316.01001"
           width="17.33"
           height="9.3999996"
           transform="rotate(-180,479.91,320.71)"
           id="rect1914" />
        <rect
           style="fill:url(#linearGradient2178)"
           class="cls-5"
           x="399.95999"
           y="290.34"
           width="88.610001"
           height="17.040001"
           transform="rotate(-180,444.27,298.855)"
           id="rect1916" />
        <rect
           style="fill:url(#linear-gradient-6);stroke:url(#linear-gradient-4);stroke-miterlimit:10"
           class="cls-6"
           x="471.25"
           y="330.17999"
           width="17.33"
           height="9.3999996"
           transform="rotate(-180,479.91,334.88)"
           id="rect1918" />
        <circle
           style="fill:url(#linear-gradient-7);stroke:url(#linear-gradient-5);stroke-miterlimit:10"
           class="cls-7"
           cx="448.19"
           cy="421.48999"
           r="5.0300002"
           id="circle1920" />
        <rect
           style="fill:url(#linear-gradient-8)"
           class="cls-8"
           x="471.25"
           y="345.03"
           width="17.33"
           height="9.3999996"
           transform="rotate(-180,479.91,349.73)"
           id="rect1922" />
        <rect
           style="fill:url(#linear-gradient-9)"
           class="cls-9"
           x="471.25"
           y="359.20001"
           width="17.33"
           height="9.3999996"
           transform="rotate(-180,479.91,363.895)"
           id="rect1924" />
        <rect
           style="fill:url(#linear-gradient-10)"
           class="cls-10"
           x="112.97"
           y="188.05"
           width="307.39001"
           height="229.25999"
           rx="9.9200001"
           id="rect1926" />
        <path
           style="opacity:0.76000001;fill:#ffffff"
           inkscape:connector-curvature="0"
           class="cls-11"
           d="m 153.51,202.33 h -8.59 c -11,0 -20,10.49 -20,23.43 v 154 c 0,12.94 8.94,23.43 20,23.43 H 389 c 11,0 20,-10.49 20,-23.43 v -154 c 0,-12.94 -8.94,-23.43 -20,-23.43 z"
           id="path1928" />
        <rect
           style="fill:url(#linear-gradient-11)"
           class="cls-12"
           x="227.60001"
           y="417.31"
           width="78.699997"
           height="18.790001"
           id="rect1930" />
        <rect
           style="fill:url(#linear-gradient-12)"
           class="cls-13"
           x="210.14"
           y="436.10999"
           width="112.52"
           height="9.0799999"
           rx="0.47"
           id="rect1932" />
      </g>
      <text
         id="text849-5"
         y="81.911552"
         x="-7.2961917"
         style="font-style:normal;font-weight:normal;font-size:3.17499995px;line-height:0.25;font-family:sans-serif;letter-spacing:0px;word-spacing:0px;fill:#000000;fill-opacity:1;stroke:none;stroke-width:0.26458332"
         xml:space="preserve"><tspan
           style="font-style:normal;font-variant:normal;font-weight:normal;font-stretch:normal;font-size:6.3499999px;font-family:Nunito;-inkscape-font-specification:Nunito;fill:#000000;fill-opacity:1;stroke-width:0.26458332"
           y="81.911552"
           x="-7.2961917"
           id="tspan847-3"
           sodipodi:role="line">Device #1</tspan></text>
    </g>
    <g
       id="g2547"
       transform="translate(7.9967872,-0.46968856)">
      <rect
         style="fill:url(#linearGradient8878);stroke-width:0.11310937"
         id="rect8829"
         rx="1.1220449"
         height="28.716208"
         width="40.980656"
         y="120.96102"
         x="-6.8688006"
         class="cls-1" />
      <path
         id="path8831"
         d="m -1.4633039,122.74814 h -1.144667 c -1.470422,0 -2.663726,1.31433 -2.663726,2.94085 v 19.28175 c 0,1.62086 1.192173,2.93519 2.663726,2.93519 H 29.926807 c 1.47042,0 2.66259,-1.31433 2.66259,-2.93519 v -19.28741 c 0,-1.62086 -1.19217,-2.94084 -2.66259,-2.94084 z"
         class="cls-2"
         inkscape:connector-curvature="0"
         style="opacity:0.76000001;fill:#ffffff;stroke-width:0.11310937" />
      <rect
         style="fill:url(#linear-gradient-2-2);stroke-width:0.11310937"
         id="rect8835"
         rx="0.8404026"
         height="3.4668021"
         width="43.69754"
         y="149.57655"
         x="-8.0926466"
         class="cls-4" />
      <ellipse
         id="ellipse8837"
         ry="1.1729442"
         rx="1.1322248"
         cy="151.31052"
         cx="13.62209"
         class="cls-2"
         style="opacity:0.76000001;fill:#ffffff;stroke-width:0.11310937" />
      <line
         style="fill:none;stroke:url(#linearGradient8880);stroke-width:0.11310937;stroke-miterlimit:10"
         id="line8841"
         y2="143.7729"
         x2="21.890385"
         y1="143.7729"
         x1="4.8120008"
         class="cls-6" />
      <line
         style="fill:none;stroke:url(#linear-gradient-5-2);stroke-width:0.11310937;stroke-miterlimit:10"
         id="line8843"
         y2="144.49002"
         x2="19.124859"
         y1="144.49002"
         x1="6.979176"
         class="cls-7" />
      <text
         id="text849-5-7"
         y="137.27875"
         x="-1.7702898"
         style="font-style:normal;font-weight:normal;font-size:3.17499995px;line-height:0.25;font-family:sans-serif;letter-spacing:0px;word-spacing:0px;fill:#000000;fill-opacity:1;stroke:none;stroke-width:0.26458332"
         xml:space="preserve"><tspan
           style="font-style:normal;font-variant:normal;font-weight:normal;font-stretch:normal;font-size:6.3499999px;font-family:Nunito;-inkscape-font-specification:Nunito;fill:#000000;fill-opacity:1;stroke-width:0.26458332"
           y="137.27875"
           x="-1.7702898"
           id="tspan847-3-0"
           sodipodi:role="line">Device #2</tspan></text>
    </g>
    <path
       style="fill:#ff8f1f;fill-opacity:0.92647059;stroke:#ffffff;stroke-width:2.15123582px;stroke-miterlimit:10"
       inkscape:connector-curvature="0"
       id="path1409-7"
       d="m 113.53609,140.85491 c 0,0 0.66099,-2.82132 0.6658,-4.3215 a 22.540863,17.925497 0 0 0 -0.65936,-4.37266 l 1.83178,-1.47205 a 2.2611626,1.7981769 0 0 0 0.39881,-2.27267 l -3.6989,-4.76273 a 2.2643789,1.8007349 0 0 0 -2.68572,-0.75074 l -2.17433,0.61517 a 22.515131,17.905034 0 0 0 -9.543217,-4.31639 l -0.368277,-1.55775 a 2.2611626,1.7981769 0 0 0 -2.217739,-1.4682 l -7.035974,-0.0166 a 2.2627707,1.7994559 0 0 0 -2.217738,1.41833 l -0.459964,1.68307 a 22.52478,17.912708 0 0 0 -9.449908,4.38674 l -2.55226,-0.46681 a 2.2643789,1.8007349 0 0 0 -2.660005,0.89525 l -3.251817,4.96225 a 2.2611626,1.7981769 0 0 0 0.562871,2.21767 l 1.695065,1.11651 a 22.675954,18.032927 0 0 0 0.04815,8.37955 l -1.717577,1.1114 a 2.2659871,1.8020138 0 0 0 -0.564485,2.25092 l 3.341892,4.92515 a 2.2643789,1.8007349 0 0 0 2.624611,0.87351 l 2.209683,-0.80572 a 22.527997,17.915266 0 0 0 10.025687,4.66426 l 0.297524,1.71633 a 2.1952253,1.7457407 0 0 0 2.153404,1.4196 l 6.830124,0.0166 a 2.20005,1.7495776 0 0 0 2.153415,-1.37611 l 0.482477,-1.75471 c 0,0 7.035968,-2.35194 9.745818,-4.44045 l 1.98938,0.57552 a 2.2659871,1.8020138 0 0 0 2.71789,-0.76735 l 3.59761,-4.80879 a 2.2659871,1.8020138 0 0 0 -0.40528,-2.24068 z"
       class="cls-9" />
    <a
       id="a5038"
       xlink:href="https://beta.singularitynet.io/servicedetails/org/snet/service/cntk-image-recon"
       transform="translate(0.66817382,0.40090429)"
       target="blank">
      <text
         id="text849-5-3-5"
         y="136.04346"
         x="79.537651"
         style="font-style:normal;font-weight:normal;font-size:3.17499995px;line-height:0.25;font-family:sans-serif;text-align:start;letter-spacing:0px;word-spacing:0px;text-anchor:start;fill:#000000;fill-opacity:1;stroke:none;stroke-width:0.26458332"
         xml:space="preserve"><tspan
           style="font-style:normal;font-variant:normal;font-weight:normal;font-stretch:normal;font-size:6.3499999px;line-height:1;font-family:Nunito;-inkscape-font-specification:Nunito;text-align:start;text-anchor:start;fill:#000000;fill-opacity:1;stroke-width:0.26458332"
           y="136.04346"
           x="79.537651"
           id="tspan847-3-6-3"
           sodipodi:role="line">Service:</tspan><tspan
           id="tspan2079-5"
           style="font-style:normal;font-variant:normal;font-weight:normal;font-stretch:normal;font-size:6.3499999px;line-height:1;font-family:Nunito;-inkscape-font-specification:Nunito;text-align:start;text-anchor:start;fill:#000000;fill-opacity:1;stroke-width:0.26458332"
           y="142.39346"
           x="79.537651"
           sodipodi:role="line">AI Sight</tspan></text>
    </a>
    <text
       xml:space="preserve"
       style="font-style:normal;font-weight:normal;font-size:3.17499995px;line-height:0.25;font-family:sans-serif;letter-spacing:0px;word-spacing:0px;fill:#000000;fill-opacity:1;stroke:none;stroke-width:0.26458332"
       x="48.041077"
       y="128.83226"
       id="text849-5-9-7"><tspan
         sodipodi:role="line"
         id="tspan847-3-1-0"
         x="48.041077"
         y="128.83226"
         style="font-style:normal;font-variant:normal;font-weight:normal;font-stretch:normal;font-size:4.58611107px;font-family:Nunito;-inkscape-font-specification:Nunito;fill:#ffffff;fill-opacity:1;stroke-width:0.26458332">Compute</tspan></text>
    <text
       xml:space="preserve"
       style="font-style:normal;font-weight:normal;font-size:3.17499995px;line-height:0.25;font-family:sans-serif;letter-spacing:0px;word-spacing:0px;fill:#000000;fill-opacity:1;stroke:none;stroke-width:0.26458332"
       x="46.063412"
       y="78.762787"
       id="text849-5-9-3"><tspan
         sodipodi:role="line"
         id="tspan847-3-1-6"
         x="46.063412"
         y="78.762787"
         style="font-style:normal;font-variant:normal;font-weight:normal;font-stretch:normal;font-size:4.58611107px;font-family:Nunito;-inkscape-font-specification:Nunito;fill:#ffffff;fill-opacity:1;stroke-width:0.26458332">Compute</tspan></text>
    <rect
       style="opacity:1;fill:#161a23;fill-opacity:0.9901962;stroke:#161a23;stroke-width:1.93278098;stroke-linecap:round;stroke-linejoin:round;stroke-miterlimit:4;stroke-dasharray:none;stroke-dashoffset:0;stroke-opacity:1"
       id="rect2306"
       width="79.496628"
       height="27.486521"
       x="-3.6118448"
       y="26.079483"
       ry="2.0756795" />
    <text
       xml:space="preserve"
       style="font-style:normal;font-weight:normal;font-size:3.17499995px;line-height:0.25;font-family:sans-serif;text-align:start;letter-spacing:0px;word-spacing:0px;text-anchor:start;fill:#000000;fill-opacity:1;stroke:none;stroke-width:0.26458332"
       x="32.673531"
       y="30.678495"
       id="text849-5-3-7"><tspan
         sodipodi:role="line"
         x="32.673531"
         y="30.678495"
         style="font-style:normal;font-variant:normal;font-weight:normal;font-stretch:normal;font-size:6.3499999px;line-height:1;font-family:Nunito;-inkscape-font-specification:Nunito;text-align:start;text-anchor:start;fill:#ffffff;fill-opacity:1;stroke-width:0.26458332"
         id="tspan5053">Task</tspan></text>
    <path
       style="opacity:1;fill:#d1d6e2;fill-opacity:1;stroke:#d2d8e7;stroke-width:1.06532812;stroke-linecap:round;stroke-linejoin:round;stroke-miterlimit:4;stroke-dasharray:none;stroke-dashoffset:0;stroke-opacity:1"
       id="path2172-2-0"
       d="m 56.353786,83.241557 c 0.614411,0.018 1.228326,0.0349 1.843413,0.0307 0.601566,-0.009 1.202783,-0.0344 1.803869,-0.0601 0.495437,-0.0211 0.990565,-0.0484 1.485937,-0.0705 0.337181,0.0186 0.672035,0.0553 1.009605,0.0693 0.05606,-0.008 0.429734,0.0192 0.456826,-0.006 0.01493,-0.014 -0.0022,-0.0381 -0.0033,-0.0571 -0.622589,0.36555 -1.217581,0.77104 -1.867777,1.09662 -0.04659,0.0233 -0.0461,-0.0845 -0.07518,-0.12367 -0.03452,-0.0466 -0.07582,-0.0889 -0.114611,-0.13277 -0.158409,-0.17914 -0.331926,-0.33435 -0.517213,-0.49178 -0.367652,-0.33978 -0.739524,-0.67332 -1.149192,-0.97374 -0.280129,-0.21967 -0.563901,-0.4357 -0.834891,-0.664 -0.03421,-0.0241 -0.06793,-0.0488 -0.102628,-0.0721 -0.01876,-0.0124 -0.13601,-0.0874 -0.164923,-0.1008 -0.01042,-0.004 -0.04311,-0.002 -0.03363,-0.007 1.92627,-1.14966 1.393294,-1.5972 1.990021,-1.04268 0.388554,0.26768 0.78149,0.53129 1.165581,0.80462 0.490698,0.35574 1.010583,0.67897 1.528683,1.00302 0.327072,0.15822 0.608422,0.37145 0.906538,0.56471 0.197107,0.14034 0.384569,0.27298 0.497891,0.47652 0.07956,0.16159 0.105601,0.33596 0.10009,0.51122 -0.02864,0.29191 -0.21371,0.53565 -0.384546,0.77885 -0.190667,0.28792 -0.417631,0.55519 -0.640016,0.82442 -0.199511,0.22927 -0.444139,0.42283 -0.691052,0.6111 -0.131145,0.10002 -0.25811,0.20405 -0.382956,0.31012 l -2.055166,0.84255 v 0 c 0.127222,-0.10898 0.253087,-0.21942 0.386939,-0.32211 0.240754,-0.19021 0.497543,-0.3645 0.711303,-0.57905 0.240621,-0.25068 0.44703,-0.52968 0.653447,-0.80271 0.149099,-0.22532 0.358832,-0.43919 0.414886,-0.69962 0.04267,-0.13592 0.0077,-0.28257 -0.03724,-0.415 -0.08643,-0.17645 -0.274699,-0.27751 -0.433,-0.4014 -0.287097,-0.2 -0.574638,-0.39854 -0.88458,-0.57161 -0.514445,-0.33178 -1.033201,-0.6593 -1.526847,-1.01479 -0.398288,-0.27265 -0.806563,-0.53378 -1.208956,-0.8012 -0.638881,-0.49106 -0.146822,-0.0729 1.744246,-1.24428 0.002,-0.001 0.144652,0.0986 0.209307,0.1466 0.03693,0.0274 0.07276,0.056 0.109173,0.0839 0.267002,0.2245 0.537159,0.44583 0.812265,0.6627 0.409947,0.30664 0.779973,0.64739 1.155191,0.98638 0.24241,0.2071 0.485955,0.41739 0.680801,0.66221 0.0337,0.0424 0.133703,0.0968 0.09092,0.1332 -0.549729,0.46828 -1.17586,0.86119 -1.763805,1.29179 -0.163203,-0.0581 -0.356283,-0.006 -0.528708,-0.0368 -0.326656,-0.0242 -0.652349,-0.0669 -0.98125,-0.0598 -0.491743,0.0219 -0.983609,0.041 -1.475386,0.0621 -0.60205,0.0249 -1.204334,0.0489 -1.806857,0.0518 -0.613086,0.002 -1.224773,-0.0255 -1.837701,-0.0236 -1.628032,0.1125 -3.244801,-0.1871 -3.620864,-0.27887 3.426762,-1.31383 0.531868,-0.94781 5.365307,-0.95122 z"
       inkscape:connector-curvature="0"
       sodipodi:nodetypes="cccccccccccccccccccccccccccccccccccccccccccccccccccc" />
    <text
       xml:space="preserve"
       style="font-style:normal;font-weight:normal;font-size:3.17499995px;line-height:0.25;font-family:sans-serif;letter-spacing:0px;word-spacing:0px;fill:#000000;fill-opacity:1;stroke:none;stroke-width:0.26458332"
       x="96.839317"
       y="108.11201"
       id="text849-5-9-0-2"><tspan
         sodipodi:role="line"
         id="tspan847-3-1-62-3"
         x="96.839317"
         y="108.11201"
         style="font-style:normal;font-variant:normal;font-weight:normal;font-stretch:normal;font-size:4.58611107px;font-family:Nunito;-inkscape-font-specification:Nunito;fill:#ffffff;fill-opacity:1;stroke-width:0.26458332">Data</tspan></text>
    <rect
       style="opacity:1;fill:#161a23;fill-opacity:0.9901962;stroke:#161a23;stroke-width:1.73931563;stroke-linecap:round;stroke-linejoin:round;stroke-miterlimit:4;stroke-dasharray:none;stroke-dashoffset:0;stroke-opacity:1"
       id="rect2306-9"
       width="76.482864"
       height="23.136406"
       x="-0.63218051"
       y="162.84142"
       ry="1.747175" />
    <text
       xml:space="preserve"
       style="font-style:normal;font-weight:normal;font-size:3.17499995px;line-height:0.25;font-family:sans-serif;letter-spacing:0px;word-spacing:0px;fill:#000000;fill-opacity:1;stroke:none;stroke-width:0.26458332"
       x="39.625332"
       y="169.00714"
       id="text849-5-3-7-2"><tspan
         sodipodi:role="line"
         x="39.625332"
         y="169.00714"
         style="font-style:normal;font-variant:normal;font-weight:normal;font-stretch:normal;font-size:6.3499999px;line-height:1;font-family:Nunito;-inkscape-font-specification:Nunito;text-align:center;text-anchor:middle;fill:#ffffff;fill-opacity:1;stroke-width:0.26458332"
         id="tspan2079-2-2">Result</tspan></text>
    <text
       xml:space="preserve"
       style="font-style:normal;font-weight:normal;font-size:3.17499995px;line-height:0.25;font-family:sans-serif;letter-spacing:0px;word-spacing:0px;fill:#000000;fill-opacity:1;stroke:none;stroke-width:0.26458332"
       x="99.388084"
       y="173.67943"
       id="text849-5-9-0-2-7-9"><tspan
         sodipodi:role="line"
         id="tspan847-3-1-62-3-5-7"
         x="99.388084"
         y="173.67943"
         style="font-style:normal;font-variant:normal;font-weight:normal;font-stretch:normal;font-size:4.58611107px;font-family:Nunito;-inkscape-font-specification:Nunito;fill:#ffffff;fill-opacity:1;stroke-width:0.26458332">Data</tspan></text>
    <path
       style="opacity:1;fill:#d0daf0;fill-opacity:1;stroke:#ced5e5;stroke-width:1;stroke-linecap:round;stroke-linejoin:round;stroke-miterlimit:4;stroke-dasharray:none;stroke-dashoffset:0;stroke-opacity:1"
       id="path2464"
       d="m 82.252322,33.707577 c 1.295467,0.147211 2.6024,0.08485 3.896564,-0.0387 1.373846,-0.164893 2.753611,-0.262233 4.135578,-0.321971 0.63465,0.0076 1.277128,-0.08941 1.910712,-0.01627 0.187127,0.02162 0.449652,0.08625 0.636405,0.128879 0.405598,0.07177 0.725723,0.289015 1.031571,0.549129 0.242956,0.234574 0.322545,0.517483 0.354772,0.843063 -0.0374,0.646639 -0.237353,1.278014 -0.386398,1.906987 -0.178459,0.915945 -0.425201,1.816105 -0.640138,2.723647 -0.248023,0.987674 -0.438153,1.987153 -0.558864,2.998071 -0.100771,0.936675 -0.112032,1.879319 -0.122901,2.820323 -0.01892,1.027348 -0.02069,2.053513 0.0441,3.079136 0.04797,0.920483 0.141843,1.837285 0.261575,2.751005 0.135739,0.852972 0.181848,1.715493 0.289528,2.571787 0.140851,0.703202 0.227849,1.414259 0.328062,2.12366 0.106021,0.661432 0.162256,1.329219 0.202026,1.997469 0.07881,1.731272 0.236921,0.789932 -2.423549,2.432696 -0.521777,-0.333957 -0.935646,-0.792261 -1.380101,-1.216996 -0.713775,-0.716738 -1.328457,-1.525574 -1.923519,-2.341404 -0.497461,-0.654447 -0.93413,-1.350068 -1.412009,-2.018152 -0.687928,-0.992372 -0.158044,-0.549449 2.310175,-1.626243 0.07912,-0.03451 0.07767,0.154221 0.119358,0.229807 0.197038,0.357262 0.264616,0.454136 0.495843,0.827447 0.799547,1.329661 1.781019,2.540439 2.94214,3.567975 0.175792,0.117912 0.341014,0.253363 0.527375,0.353738 1.117407,0.601824 1.999885,0.116131 2.975322,-0.478891 -0.540763,0.270597 -1.025581,0.713886 -1.62229,0.811789 -0.312047,0.0512 0.463997,-0.430225 0.683583,-0.65777 0.229523,-0.237844 0.447336,-0.486878 0.662855,-0.737483 0.645385,-0.750454 1.23898,-1.54445 1.840585,-2.329752 0.646652,-0.841454 1.288944,-1.686629 2.003868,-2.471724 l 2.55337,-1.065297 v 0 c -0.76405,0.771982 -1.43597,1.623607 -2.10039,2.48181 -0.60752,0.786704 -1.202189,1.585381 -1.839314,2.348666 -0.167179,0.200287 -1.076547,1.266397 -1.308938,1.430679 -0.960046,0.678683 -1.984931,1.26065 -2.977396,1.890977 -0.227341,0.120963 -0.44495,0.262332 -0.682025,0.36289 -1.18315,0.501853 -2.050206,0.264014 -3.020747,-0.511371 -1.157616,-1.06489 -2.140186,-2.299833 -3.003968,-3.613404 -0.776264,-1.137674 0.06657,0.100713 -0.54808,-0.81021 -0.04161,-0.06167 -0.186436,-0.140211 -0.126301,-0.184015 2.913573,-2.122326 1.93027,-2.22609 2.516836,-1.233016 0.456345,0.678693 0.875347,1.381887 1.371261,2.033547 0.591481,0.799746 1.196292,1.598515 1.917171,2.287717 0.224065,0.210667 0.87486,0.91943 1.18273,0.965047 0.02371,0.0035 0.0376,-0.02973 0.0564,-0.04459 -0.76732,0.483638 -1.529879,0.974911 -2.301959,1.450915 -0.01998,0.0123 0.03589,-0.03423 0.04116,-0.05709 0.05865,-0.254828 -0.042,-0.54433 -0.0062,-0.801087 -0.02522,-0.661993 -0.07119,-1.323686 -0.181343,-1.977742 -0.108664,-0.71129 -0.169619,-1.429967 -0.322434,-2.134751 -0.09914,-0.856885 -0.152297,-1.718079 -0.280988,-2.571527 -0.129855,-0.919856 -0.212976,-1.846223 -0.261061,-2.773887 -0.06393,-1.029909 -0.06915,-2.059532 -0.0637,-3.09137 0.007,-0.952034 0.03194,7.316055 0.122454,6.367768 0.11639,-1.017596 0.287986,-11.247762 0.535583,-12.242267 0.209807,-0.907407 0.472813,-1.802683 0.63487,-2.720596 0.136655,-0.600896 0.283774,-1.203606 0.387477,-1.809473 -0.01849,-0.253449 -0.04571,-0.472789 -0.247531,-0.650544 -0.275807,-0.228722 -0.582329,-0.381942 -0.938003,-0.448625 -0.813001,-0.168468 -1.63812,-0.11158 -2.463496,-0.08529 -1.371581,0.05586 -2.739498,0.162824 -4.103952,0.314423 -1.331111,0.109498 -2.668984,0.156966 -4.002463,0.05158 l 2.278711,-1.621129 z"
       inkscape:connector-curvature="0"
       sodipodi:nodetypes="cccccccccccccccccccccccccccccccccccccccccscccccccccccccccccccccccc" />
    <path
       style="opacity:1;fill:#cad2e4;fill-opacity:1;stroke:#ced5e6;stroke-width:1;stroke-linecap:round;stroke-linejoin:round;stroke-miterlimit:4;stroke-dasharray:none;stroke-dashoffset:0;stroke-opacity:1"
       id="path2471"
       d="m 92.717883,159.36239 c -0.02289,0.7231 -0.01212,1.44671 -0.01027,2.17002 0.0047,0.57869 0.0057,1.15738 0.0035,1.73608 0.0011,0.59972 -5.8e-5,1.19943 -0.0021,1.79915 -0.0019,0.58097 0.0048,1.16193 0.0043,1.7429 -1.94e-4,0.57753 -0.0024,1.15506 -0.0034,1.7326 -0.0024,0.70711 -0.0048,1.4142 -0.0044,2.12132 0.0035,0.59137 0.0054,1.18274 0.009,1.77411 0.01206,0.43883 -0.01577,0.87877 0.01797,1.31662 0.120647,0.49983 0.215413,1.00446 0.312727,1.50931 0.07818,0.40068 0.202819,0.79266 0.177358,1.20381 -0.03279,0.17417 -0.104587,0.35037 -0.266533,0.44619 -1.69146,1.00073 -1.809171,1.38549 -3.089019,1.57597 -0.58792,0.0804 -1.18229,0.0758 -1.774306,0.0801 -0.625644,-2.6e-4 -1.251291,-0.001 -1.876936,-0.002 -0.575961,-0.001 -1.151929,-7.9e-4 -1.727888,5.3e-4 -0.43248,0.002 -0.86496,0.003 -1.297442,0.003 -0.360463,-0.006 -0.56143,0.0943 -0.786106,-0.23604 -0.133369,-0.2924 -0.124709,-0.61537 -0.128699,-0.92978 0.0038,-0.33083 -0.01717,-0.66212 0.04147,-0.98899 0.06217,-0.22253 0.108805,-0.44644 0.133276,-0.67606 0.01458,-0.21077 0.02196,-0.42232 0.01601,-0.63355 0.31133,0.8966 -0.03135,-0.0443 2.452307,-1.13171 0.06211,-0.0272 -0.08395,0.10657 -0.123455,0.16167 -0.152217,0.21233 -0.276066,0.43725 -0.397198,0.66814 -0.244435,0.49854 -0.462705,1.0086 -0.710612,1.50571 -0.171606,0.35514 -0.339794,0.71428 -0.481679,1.08263 -0.12463,0.26999 -0.01368,0.41913 0.173532,0.6187 0.413335,0.38155 0.859562,0.7258 1.281787,1.09848 0.468355,0.39028 0.879335,0.83233 1.213813,1.34141 0.225356,0.32708 0.453747,0.65149 0.691954,0.96958 0,0 -2.416418,1.42989 -2.416418,1.42989 v 0 c -0.233,-0.32703 -0.46441,-0.65453 -0.682577,-0.99162 -0.31868,-0.48799 -0.721056,-0.90628 -1.166583,-1.28136 -0.434062,-0.37596 -0.898271,-0.71662 -1.315365,-1.11115 -0.235085,-0.25329 -0.439388,-0.52696 -0.328179,-0.88875 0.13984,-0.38279 0.320289,-0.74867 0.484751,-1.12111 0.264679,-0.4893 0.482923,-0.99865 0.716262,-1.50229 0.425386,-0.91131 2.128549,-3.5739 3.121199,-2.12864 -0.0063,0.21847 0.0026,0.43732 -0.01119,0.6556 -0.01286,0.24357 -0.03935,0.48534 -0.116144,0.71819 -0.09734,0.30387 -0.07962,0.61187 -0.07671,0.92893 5.29e-4,0.25651 -0.01056,0.51932 0.05374,0.76971 0.199742,0.0565 0.420886,0.006 0.627568,0.0255 0.429572,5.3e-4 0.859141,0.002 1.288711,0.003 0.57408,0.002 1.148162,0.003 1.722244,0.004 0.62469,0.001 1.249392,0.006 1.874073,5.3e-4 0.584073,-0.007 1.172308,-0.0149 1.747724,-0.12662 0.0868,-0.0226 0.175268,-0.0396 0.26039,-0.0679 0.07388,-0.0246 0.281982,-0.13059 0.21541,-0.0902 -4.080433,2.47369 -2.615777,1.6264 -1.859851,1.0681 0.06403,-0.3866 -0.04059,-0.7556 -0.120367,-1.13574 -0.108784,-0.51065 -0.177888,-1.02963 -0.332198,-1.53048 -0.05458,-0.44551 -0.02191,-0.89537 -0.02726,-1.3435 0.0036,-0.59443 0.0055,-1.18887 0.009,-1.7833 2.65e-4,-0.7056 -0.0021,-1.41118 -0.0044,-2.11678 -0.0011,-0.57639 -0.0032,-1.15278 -0.0034,-1.72917 -5.29e-4,-0.58244 0.0062,-1.16487 0.0043,-1.74731 -0.0021,-0.59899 -0.0031,-1.19797 -0.0021,-1.79696 -0.0021,-0.57988 -0.0011,-1.15976 0.0035,-1.73963 0.0019,-0.71982 0.01278,-1.43996 -0.01027,-2.15955 0,0 2.495293,-1.27142 2.495293,-1.27142 z"
       inkscape:connector-curvature="0" />
    <path
       style="opacity:1;fill:#dce1ea;fill-opacity:0.99019617;stroke:#d8e1f6;stroke-width:1.06532812;stroke-linecap:round;stroke-linejoin:round;stroke-miterlimit:4;stroke-dasharray:none;stroke-dashoffset:0;stroke-opacity:1"
       id="path2172-2-0-2"
       d="m 91.940513,108.05839 c -0.0209,0.61432 -0.0406,1.22815 -0.0393,1.84325 0.006,0.6016 0.0288,1.20293 0.0517,1.80413 0.0188,0.49553 0.0438,0.99078 0.0636,1.48625 -0.0202,0.33709 -0.0584,0.67177 -0.074,1.00927 0.008,0.0561 -0.0212,0.42964 0.004,0.45685 0.0139,0.015 0.0381,-0.002 0.0571,-0.003 -0.36263,-0.62429 -0.76534,-1.22117 -1.08788,-1.87288 -0.0231,-0.0467 0.0847,-0.0457 0.12402,-0.0746 0.0468,-0.0343 0.0893,-0.0754 0.1333,-0.11399 0.17988,-0.15757 0.3359,-0.33036 0.4942,-0.51491 0.34149,-0.36606 0.67676,-0.73637 0.97909,-1.14463 0.22098,-0.2791 0.43833,-0.56186 0.6679,-0.83178 0.0243,-0.0341 0.0491,-0.0677 0.0726,-0.10229 0.0125,-0.0187 0.088,-0.1356 0.10157,-0.16445 0.004,-0.0104 0.002,-0.0431 0.007,-0.0336 1.14065,1.93162 1.59067,1.40074 1.03337,1.99487 -0.26949,0.3873 -0.53493,0.779 -0.81005,1.16181 -0.35803,0.48903 -0.68369,1.0074 -1.01015,1.52398 -0.15975,0.32633 -0.37429,0.60668 -0.56894,0.90389 -0.14126,0.19645 -0.27478,0.38329 -0.47884,0.49566 -0.16196,0.0788 -0.33645,0.10403 -0.51169,0.0977 -0.291771,-0.03 -0.534641,-0.21621 -0.777042,-0.38818 -0.28703,-0.19201 -0.55323,-0.42022 -0.82142,-0.64386 -0.22834,-0.20058 -0.42075,-0.44611 -0.60787,-0.6939 -0.0994,-0.13161 -0.20284,-0.25906 -0.30832,-0.3844 l -0.832938,-2.05908 v 0 c 0.10838,0.12773 0.21823,0.25411 0.32029,0.38844 0.18909,0.24164 0.36218,0.49924 0.57573,0.714 0.24955,0.24179 0.52758,0.4495 0.79964,0.65719 0.22463,0.15015 0.43751,0.36088 0.69768,0.41815 0.13572,0.0433 0.28253,0.009 0.41517,-0.0353 0.17685,-0.0856 0.27879,-0.2734 0.40342,-0.43112 0.20134,-0.28616 0.40122,-0.57277 0.57573,-0.8819 0.33418,-0.51289 0.66412,-1.03011 1.02191,-1.52209 0.27451,-0.39701 0.53755,-0.80406 0.80684,-1.2052 0.49404,-0.63658 0.0736,-0.14648 1.23612,1.75004 10e-4,0.002 -0.0993,0.14419 -0.14757,0.20862 -0.0276,0.0368 -0.0563,0.0725 -0.0844,0.10878 -0.22575,0.26595 -0.44834,0.53507 -0.66649,0.80916 -0.30855,0.40851 -0.65103,0.77694 -0.99177,1.15057 -0.20823,0.24144 -0.41965,0.484 -0.66538,0.6777 -0.0426,0.0335 -0.0974,0.13325 -0.13362,0.0903 -0.46571,-0.55191 -0.85569,-1.17987 -1.28354,-1.76982 0.0589,-0.16293 0.008,-0.35625 0.0393,-0.52853 0.0257,-0.32654 0.07,-0.65203 0.0644,-0.98096 -0.0196,-0.49184 -0.0364,-0.98379 -0.0552,-1.47566 -0.0221,-0.60216 -0.0433,-1.20455 -0.0434,-1.80708 4.77e-4,-0.61309 0.0312,-1.22464 0.0322,-1.83757 -0.10489,-1.62854 0.20226,-3.24389 0.29578,-3.61952 1.29781,3.43286 0.94532,0.53629 0.92615,5.36969 z"
       inkscape:connector-curvature="0"
       sodipodi:nodetypes="cccccccccccccccccccccccccccccccccccccccccccccccccccc" />
    <path
       style="opacity:1;fill:#cbd4e8;fill-opacity:0.99019617;stroke:#dde2ee;stroke-width:1.06532812;stroke-linecap:round;stroke-linejoin:round;stroke-miterlimit:4;stroke-dasharray:none;stroke-dashoffset:0;stroke-opacity:1"
       id="path2172-2-0-9"
       d="m 57.189751,134.61608 c 0.614411,0.018 1.228326,0.0349 1.843413,0.0307 0.601566,-0.009 1.202783,-0.0344 1.803869,-0.0601 0.495437,-0.0211 0.990565,-0.0484 1.485937,-0.0705 0.337181,0.0186 0.672035,0.0553 1.009605,0.0693 0.05606,-0.008 0.429734,0.0192 0.456826,-0.006 0.01493,-0.014 -0.0022,-0.0381 -0.0033,-0.0571 -0.622589,0.36555 -1.217581,0.77104 -1.867777,1.09662 -0.04659,0.0233 -0.0461,-0.0845 -0.07518,-0.12367 -0.03452,-0.0466 -0.07582,-0.0889 -0.114611,-0.13277 -0.158409,-0.17914 -0.331926,-0.33435 -0.517213,-0.49178 -0.367652,-0.33978 -0.739524,-0.67332 -1.149192,-0.97374 -0.280129,-0.21967 -0.563901,-0.4357 -0.834891,-0.664 -0.03421,-0.0241 -0.06793,-0.0488 -0.102628,-0.0721 -0.01876,-0.0124 -0.13601,-0.0874 -0.164923,-0.1008 -0.01042,-0.004 -0.04311,-0.002 -0.03363,-0.007 1.92627,-1.14966 1.393294,-1.5972 1.990021,-1.04268 0.388554,0.26768 0.78149,0.53129 1.165581,0.80462 0.490698,0.35574 1.010583,0.67897 1.528683,1.00302 0.327072,0.15822 0.608422,0.37145 0.906538,0.56471 0.197107,0.14034 0.384569,0.27298 0.497891,0.47652 0.07956,0.16159 0.105601,0.33596 0.10009,0.51122 -0.02864,0.29191 -0.21371,0.53565 -0.384546,0.77885 -0.190667,0.28792 -0.417631,0.55519 -0.640016,0.82442 -0.199511,0.22927 -0.444139,0.42283 -0.691052,0.6111 -0.131145,0.10002 -0.25811,0.20405 -0.382956,0.31012 l -2.055166,0.84255 v 0 c 0.127222,-0.10898 0.253087,-0.21942 0.386939,-0.32211 0.240754,-0.19021 0.497543,-0.3645 0.711303,-0.57905 0.240621,-0.25068 0.44703,-0.52968 0.653447,-0.80271 0.149099,-0.22532 0.358832,-0.43919 0.414886,-0.69962 0.04267,-0.13592 0.0077,-0.28257 -0.03724,-0.415 -0.08643,-0.17645 -0.274699,-0.27751 -0.433,-0.4014 -0.287097,-0.2 -0.574638,-0.39854 -0.88458,-0.57161 -0.514445,-0.33178 -1.033201,-0.6593 -1.526847,-1.01479 -0.398288,-0.27265 -0.806563,-0.53378 -1.208956,-0.8012 -0.638881,-0.49106 -0.146822,-0.0729 1.744246,-1.24428 0.002,-0.001 0.144652,0.0986 0.209307,0.1466 0.03693,0.0274 0.07276,0.056 0.109173,0.0839 0.267002,0.2245 0.537159,0.44583 0.812265,0.6627 0.409947,0.30664 0.779973,0.64739 1.155191,0.98638 0.24241,0.2071 0.485955,0.41739 0.680801,0.66221 0.0337,0.0424 0.133703,0.0968 0.09092,0.1332 -0.549729,0.46828 -1.17586,0.86119 -1.763805,1.29179 -0.163203,-0.0581 -0.356283,-0.006 -0.528708,-0.0368 -0.326656,-0.0242 -0.652349,-0.0669 -0.98125,-0.0598 -0.491743,0.0219 -0.983609,0.041 -1.475386,0.0621 -0.60205,0.0249 -1.204334,0.0489 -1.806857,0.0518 -0.613086,0.002 -1.224773,-0.0255 -1.837701,-0.0236 -1.628032,0.1125 -3.244801,-0.18709 -3.620864,-0.27886 3.426762,-1.31384 0.531868,-0.94782 5.365307,-0.95123 z"
       inkscape:connector-curvature="0"
       sodipodi:nodetypes="cccccccccccccccccccccccccccccccccccccccccccccccccccc" />
    <image
       y="65.366211"
       x="90.277199"
       id="image1312"
       xlink:href="data:image/png;base64,iVBORw0KGgoAAAANSUhEUgAAAMQAAAGuCAYAAADPvqnjAAAABmJLR0QA/wD/AP+gvaeTAAAACXBI WXMAAC4jAAAuIwF4pT92AAAAB3RJTUUH4wsZCS81TbstSQAACa5JREFUeNrt3UlyG0kMRmES4a3P pzPqfD4Avepo26GBQ2Ulhu8tO6IlMZEPP8Ci5OvtdrvgY97efn16OO/vP69+9n5cCfHYZapwsar/ /IQodpEyX6oOr2EnPxzBc5eo4+snxuUS0y/CdBk0BkIoviZhZCKCMUpC6HwaCCFmF3VFR5/UTFq/ 7bq6iJnHiVWvvfsI1VaIyTKccQZdxWgnxBnRXukykGKwEGSQlpZqMmz/uTst3OUT4qxidOiCkqK5 EGSQpEYmMqgNIchQ7TVVlaLUyHTmIXdPBk2luBBkcKZGJoVr81qrjFBBhtkLNCkKCUEGUhCCDKQg BBlIQYjSyxd61jomH5B02H8m2aQIMoAUyYQgAymySBFkACmSCEEGUmSTIqbIgDrsvBsx5QVLh1pn t0uKIANIsUkIMpAiO0EG2CcSLNWQEhmliI6WSwdSpBWCDKSodJeCDMAJQnjwJiUq3qtQIJBisRBG JVSVIjrIAMmcUohdMkgHo5MdggxYIEVkthWaU8mRyaiELqOTzzLB6HSkENIBnWojISAljhJCOqBb jYIMkBJGJmhexwkhHdA1JSQE8IoQ0gEV6vbsPZUQwLNC+LwSuqdEOFDgCSGkAyakRDhI4EEhpAMI IR0wcGzytivwiBDGJXTg3nucNiGMS8amdAkhHWBkAgaPTSmFMC4Zm9IlhHEJRiZg+NgU2dLBuAQJ AXsEIYB8YxMhgK+EsD+AEIAGSAjYI74UwsM4GJkA5BPCQg1CwGKdrBGG/QEWawkBGJkAQgCEAF4Q YvdC7S1XSAiAEEAu/p2OCAEQApnItEMSAvhTCB/ZACQEQAiAEAAhAEIAhAAIARACIAQwTwhPy2eT qf4SAiAEQAiAEAAhAEIAhAB6CuFZBAiB8WRrhIQACAEQAqglhMUaZ/PvH0mTEAAhYCIgBFBPCHsE CAEQAiAEkHo0DoeFqXz0D7WEfwEUMDLBBFBLCGMTCAEQAsixUKcXwthkf9iSEN5pAoqMTFIChIBx iRBSAnsXagkBfCZE9sVaShiXjEwAIaQE9uwPEgIa2VdCVHhAJyVgZIJ0IISUwLn7g4SAxvWdEFU+ 6CclYGQiBRaOS0YmaFb3CFHp9yOkBIxMpFCPBeNSq5GJFFiaEH6tFBMbUygGOvNoY2/3LhMpnP2y hKg6NpECRiZSOO8DGnqs+KKKBAkB6VA8He4WQkpAQuhgGJYODwlR/UEdKSAhSCEdVgrR4eMcpICE IIV0WCVElw/9vb39uhEDEkJatOSoRh07vzkpICFIgaTp8JIQHX+BiBSzZZAQpMCRQnT9NVPvQM1M h0MSovPvXpNilgxGJlJghRDd/0IHKWakw+VyuVxvt5uLQ/4y9V59/kYm0mtGqxJi2oWRFufV+6yz DpeE/BqPkYkUGuA5I9PkizJ5hFpR7x3nGS6HJpCx3rvuz7KEmH5JpEXNs7NDaARpmsH7+8/r7kay PCEsnt6e/eoOZDubU4QgBSmqcJoQpCAGIUhBjGKEi2DpxkYh8LcUxCCElJAWdggXQbMgBCmIYWRS eI1CQrgAmoaEUHTNQkIovsZBCFIQgxDEIAUhSEEMQlgqiYHL5VLks0wKrXFICAXXRCSEImseEkKx NRJCEIMYRiYF1kAkhEJrJoQgBikIQQpi2CEUVxOREAotLSSE4koLCaHI0oIQxMBQKUYJQQpiEIIY pLBUK64mIiEUWkOREIqriUgIhdZMJIQCayASQrE1E0IQgxRGJkXWPCSEgmsihCAGMYxMCq1xSAhF R7EGQghikMLIZIzSMCSE4mschCAGKQhBDFLYIRRfk5AQLoJmQQhikMLI5BJoDhLChdAkCEEMUmyT wsjkMmgKEsLF0BwIQQxSGJlcCkgIaaEhEIIYpDAyGaM0AAmBuWmxuhH8qFZQC+bHZ+KBXoOEeKWI xJibFitrv0WII4tGjJlirKp7VC+UUWFmo1hV9+jwIkghPcuNTGdcWhdgXtM4uuahGNKC6CcKcaYM xPteCimabKmGtMjcCKPKDyolSHFG3cPFNEI5icVCkEFaVE2JIAM6jlCWalKS4oDah4sIe8UCIcgg LTqkhOcQsFccLYR0IEWXlAhFBCkOFEI6kMLIRAZSEELRUO98H23acdY3AikkBEhRLCVi9TdQJFJI CMUhRdGUMDJBM3pFiIzjknRQg6PuroSAxvSsENIB3ZEQGNWgvmvq4fChLk8I4ck0JkgRDhzT+Kq5 x6tfAOjUtMJBQ62aLNXA0WNTPPs/Ah1TIhwu1M3IBNQXQjpIidV7RNgfgIIJIR2kBCGAk8cmQkBK 3CNEpv3BuAQjE6QEIQBCGJekRJrFOrLvD4CEAAhhXDI2EQKQEEAZIbIs1MYlY9OZ/HfvJQRgZAIK CWFcMjYRAiAEkFgIH9nA9LFJQgCZhbBQgxAAIQBCAGlH5re3X7dwGICEAL4WwjMIQEIAhAAIgTLs fHOFEEBGIbzlCkIAhAAIARACIARACIAQwDJ2vA3//v7zSghAQgCEAAgBEAIgBEAIgBAAITCKXX/0 ghDA5f8n4/HvfwCMTAAIARACIARACOAu/nxDiRBAxoTw18eRTgjPIjC9ORqZYH8gBCAhAEIALwlh scaUhfqjux5TDwMwMgGEAF4Uwh6B7nx2x9MlhD3CQm1kArLvEMYmTBuXJASMSxWEsEeAEMDmcelb IewRmDYRSAhIh0eE2JUS9ghICBiXCCElkGNculsIyzWMTECTCeCRhh4rvqixCRICKJ4OhABeEcLY hM7pICGAV4WQEuiaDhICOEIIKYGO6SAhgKOEkBLolg4vJ4TPOKFbEwsHjC4c0aAjww8B6ZDlHoaD Bg4WQkqgQzocmhA7pJASZDj63nkOAawSQkqgcjosSQhSoKoMRiZoTmcIISXIUDEdliYEKchQ8V4Z mTB+bzhNCCkhHewQpCBD4XsUnV4MKYxKZXYIn3eSDhXuTSgYyLBJCKMTGbJPFKcnBCnIkJktI5N9 AlnvR0x50VLCqJR+qSYFGbJNDtvfZSIFGTKN0SnediUFGUYv1aQgQ0YZUgmR8XDIMK/e6Z5Un3lI UoIM6YUgBRkIQQoyEIIUZCAEKchACFKQocp5XG+3mwIWL2LWs6x4huV+QeisQ+6eFGRoIsSU7k0G QqQ79I4pQYZmO4QiOydCKHbq8+k0wrb5qxuri1J5fCLDwIRwAaQmIUjh9RuZ7i/aqsJN/txT97e8 QwH7SbHqZ5vw/OfHpK7mY95EGJ8QZ41RZCCEImsehFBwDaMzbd92PWMRzXxxur0eS7XFWyJIiDod tsvDOTL8zW8EZGfgC1LgmAAAAABJRU5ErkJggg== "
       style="image-rendering:optimizeQuality"
       preserveAspectRatio="none"
       height="9.1016674"
       width="4.1486669" />
    <image
       y="119.4883"
       x="88.539948"
       id="image1312-3"
       xlink:href="data:image/png;base64,iVBORw0KGgoAAAANSUhEUgAAAMQAAAGuCAYAAADPvqnjAAAABmJLR0QA/wD/AP+gvaeTAAAACXBI WXMAAC4jAAAuIwF4pT92AAAAB3RJTUUH4wsZCS81TbstSQAACa5JREFUeNrt3UlyG0kMRmES4a3P pzPqfD4Avepo26GBQ2Ulhu8tO6IlMZEPP8Ci5OvtdrvgY97efn16OO/vP69+9n5cCfHYZapwsar/ /IQodpEyX6oOr2EnPxzBc5eo4+snxuUS0y/CdBk0BkIoviZhZCKCMUpC6HwaCCFmF3VFR5/UTFq/ 7bq6iJnHiVWvvfsI1VaIyTKccQZdxWgnxBnRXukykGKwEGSQlpZqMmz/uTst3OUT4qxidOiCkqK5 EGSQpEYmMqgNIchQ7TVVlaLUyHTmIXdPBk2luBBkcKZGJoVr81qrjFBBhtkLNCkKCUEGUhCCDKQg BBlIQYjSyxd61jomH5B02H8m2aQIMoAUyYQgAymySBFkACmSCEEGUmSTIqbIgDrsvBsx5QVLh1pn t0uKIANIsUkIMpAiO0EG2CcSLNWQEhmliI6WSwdSpBWCDKSodJeCDMAJQnjwJiUq3qtQIJBisRBG JVSVIjrIAMmcUohdMkgHo5MdggxYIEVkthWaU8mRyaiELqOTzzLB6HSkENIBnWojISAljhJCOqBb jYIMkBJGJmhexwkhHdA1JSQE8IoQ0gEV6vbsPZUQwLNC+LwSuqdEOFDgCSGkAyakRDhI4EEhpAMI IR0wcGzytivwiBDGJXTg3nucNiGMS8amdAkhHWBkAgaPTSmFMC4Zm9IlhHEJRiZg+NgU2dLBuAQJ AXsEIYB8YxMhgK+EsD+AEIAGSAjYI74UwsM4GJkA5BPCQg1CwGKdrBGG/QEWawkBGJkAQgCEAF4Q YvdC7S1XSAiAEEAu/p2OCAEQApnItEMSAvhTCB/ZACQEQAiAEAAhAEIAhAAIARACIAQwTwhPy2eT qf4SAiAEQAiAEAAhAEIAhAB6CuFZBAiB8WRrhIQACAEQAqglhMUaZ/PvH0mTEAAhYCIgBFBPCHsE CAEQAiAEkHo0DoeFqXz0D7WEfwEUMDLBBFBLCGMTCAEQAsixUKcXwthkf9iSEN5pAoqMTFIChIBx iRBSAnsXagkBfCZE9sVaShiXjEwAIaQE9uwPEgIa2VdCVHhAJyVgZIJ0IISUwLn7g4SAxvWdEFU+ 6CclYGQiBRaOS0YmaFb3CFHp9yOkBIxMpFCPBeNSq5GJFFiaEH6tFBMbUygGOvNoY2/3LhMpnP2y hKg6NpECRiZSOO8DGnqs+KKKBAkB6VA8He4WQkpAQuhgGJYODwlR/UEdKSAhSCEdVgrR4eMcpICE IIV0WCVElw/9vb39uhEDEkJatOSoRh07vzkpICFIgaTp8JIQHX+BiBSzZZAQpMCRQnT9NVPvQM1M h0MSovPvXpNilgxGJlJghRDd/0IHKWakw+VyuVxvt5uLQ/4y9V59/kYm0mtGqxJi2oWRFufV+6yz DpeE/BqPkYkUGuA5I9PkizJ5hFpR7x3nGS6HJpCx3rvuz7KEmH5JpEXNs7NDaARpmsH7+8/r7kay PCEsnt6e/eoOZDubU4QgBSmqcJoQpCAGIUhBjGKEi2DpxkYh8LcUxCCElJAWdggXQbMgBCmIYWRS eI1CQrgAmoaEUHTNQkIovsZBCFIQgxDEIAUhSEEMQlgqiYHL5VLks0wKrXFICAXXRCSEImseEkKx NRJCEIMYRiYF1kAkhEJrJoQgBikIQQpi2CEUVxOREAotLSSE4koLCaHI0oIQxMBQKUYJQQpiEIIY pLBUK64mIiEUWkOREIqriUgIhdZMJIQCayASQrE1E0IQgxRGJkXWPCSEgmsihCAGMYxMCq1xSAhF R7EGQghikMLIZIzSMCSE4mschCAGKQhBDFLYIRRfk5AQLoJmQQhikMLI5BJoDhLChdAkCEEMUmyT wsjkMmgKEsLF0BwIQQxSGJlcCkgIaaEhEIIYpDAyGaM0AAmBuWmxuhH8qFZQC+bHZ+KBXoOEeKWI xJibFitrv0WII4tGjJlirKp7VC+UUWFmo1hV9+jwIkghPcuNTGdcWhdgXtM4uuahGNKC6CcKcaYM xPteCimabKmGtMjcCKPKDyolSHFG3cPFNEI5icVCkEFaVE2JIAM6jlCWalKS4oDah4sIe8UCIcgg LTqkhOcQsFccLYR0IEWXlAhFBCkOFEI6kMLIRAZSEELRUO98H23acdY3AikkBEhRLCVi9TdQJFJI CMUhRdGUMDJBM3pFiIzjknRQg6PuroSAxvSsENIB3ZEQGNWgvmvq4fChLk8I4ck0JkgRDhzT+Kq5 x6tfAOjUtMJBQ62aLNXA0WNTPPs/Ah1TIhwu1M3IBNQXQjpIidV7RNgfgIIJIR2kBCGAk8cmQkBK 3CNEpv3BuAQjE6QEIQBCGJekRJrFOrLvD4CEAAhhXDI2EQKQEEAZIbIs1MYlY9OZ/HfvJQRgZAIK CWFcMjYRAiAEkFgIH9nA9LFJQgCZhbBQgxAAIQBCAGlH5re3X7dwGICEAL4WwjMIQEIAhAAIgTLs fHOFEEBGIbzlCkIAhAAIARACIARACIAQwDJ2vA3//v7zSghAQgCEAAgBEAIgBEAIgBAAITCKXX/0 ghDA5f8n4/HvfwCMTAAIARACIARACOAu/nxDiRBAxoTw18eRTgjPIjC9ORqZYH8gBCAhAEIALwlh scaUhfqjux5TDwMwMgGEAF4Uwh6B7nx2x9MlhD3CQm1kArLvEMYmTBuXJASMSxWEsEeAEMDmcelb IewRmDYRSAhIh0eE2JUS9ghICBiXCCElkGNculsIyzWMTECTCeCRhh4rvqixCRICKJ4OhABeEcLY hM7pICGAV4WQEuiaDhICOEIIKYGO6SAhgKOEkBLolg4vJ4TPOKFbEwsHjC4c0aAjww8B6ZDlHoaD Bg4WQkqgQzocmhA7pJASZDj63nkOAawSQkqgcjosSQhSoKoMRiZoTmcIISXIUDEdliYEKchQ8V4Z mTB+bzhNCCkhHewQpCBD4XsUnV4MKYxKZXYIn3eSDhXuTSgYyLBJCKMTGbJPFKcnBCnIkJktI5N9 AlnvR0x50VLCqJR+qSYFGbJNDtvfZSIFGTKN0SnediUFGUYv1aQgQ0YZUgmR8XDIMK/e6Z5Un3lI UoIM6YUgBRkIQQoyEIIUZCAEKchACFKQocp5XG+3mwIWL2LWs6x4huV+QeisQ+6eFGRoIsSU7k0G QqQ79I4pQYZmO4QiOydCKHbq8+k0wrb5qxuri1J5fCLDwIRwAaQmIUjh9RuZ7i/aqsJN/txT97e8 QwH7SbHqZ5vw/OfHpK7mY95EGJ8QZ41RZCCEImsehFBwDaMzbd92PWMRzXxxur0eS7XFWyJIiDod tsvDOTL8zW8EZGfgC1LgmAAAAABJRU5ErkJggg== "
       style="image-rendering:optimizeQuality"
       preserveAspectRatio="none"
       height="9.1016674"
       width="4.1486669" />
    <text
       xml:space="preserve"
       style="font-style:normal;font-weight:normal;font-size:3.17499995px;line-height:0.25;font-family:sans-serif;text-align:start;letter-spacing:0px;word-spacing:0px;text-anchor:start;fill:#000000;fill-opacity:1;stroke:none;stroke-width:0.26458332"
       x="0.6941331"
       y="38.205845"
       id="text849-5-3-7-6"><tspan
         sodipodi:role="line"
         x="0.6941331"
         y="38.205845"
         style="font-style:normal;font-variant:normal;font-weight:normal;font-stretch:normal;font-size:4.93888903px;line-height:1;font-family:Nunito;-inkscape-font-specification:Nunito;text-align:start;text-anchor:start;fill:#ffffff;fill-opacity:1;stroke-width:0.26458332"
         id="tspan5053-7">Input:</tspan><tspan
         sodipodi:role="line"
         x="0.6941331"
         y="43.144733"
         style="font-style:normal;font-variant:normal;font-weight:normal;font-stretch:normal;font-size:4.93888903px;line-height:1;font-family:Nunito;-inkscape-font-specification:Nunito;text-align:start;text-anchor:start;fill:#ffffff;fill-opacity:1;stroke-width:0.26458332"
         id="tspan5079">* image or photo of a dog;</tspan><tspan
         sodipodi:role="line"
         x="0.6941331"
         y="48.083622"
         style="font-style:normal;font-variant:normal;font-weight:normal;font-stretch:normal;font-size:4.93888903px;line-height:1;font-family:Nunito;-inkscape-font-specification:Nunito;text-align:start;text-anchor:start;fill:#ffffff;fill-opacity:1;stroke-width:0.26458332"
         id="tspan5081">* 15 NTXd for compute resources;</tspan></text>
    <text
       xml:space="preserve"
       style="font-style:normal;font-weight:normal;font-size:3.17499995px;line-height:0.25;font-family:sans-serif;text-align:start;letter-spacing:0px;word-spacing:0px;text-anchor:start;fill:#000000;fill-opacity:1;stroke:none;stroke-width:0.26458332"
       x="0.85918689"
       y="173.18243"
       id="text849-5-3-7-6-5"><tspan
         sodipodi:role="line"
         x="0.85918689"
         y="173.18243"
         style="font-style:normal;font-variant:normal;font-weight:normal;font-stretch:normal;font-size:4.93888903px;line-height:1;font-family:Nunito;-inkscape-font-specification:Nunito;text-align:start;text-anchor:start;fill:#ffffff;fill-opacity:1;stroke-width:0.26458332"
         id="tspan5053-7-3">Output:</tspan><tspan
         sodipodi:role="line"
         x="0.85918689"
         y="178.12132"
         style="font-style:normal;font-variant:normal;font-weight:normal;font-stretch:normal;font-size:4.93888903px;line-height:1;font-family:Nunito;-inkscape-font-specification:Nunito;text-align:start;text-anchor:start;fill:#ffffff;fill-opacity:1;stroke-width:0.26458332"
         id="tspan5079-5">* Detected dog breed;</tspan><tspan
         sodipodi:role="line"
         x="0.85918689"
         y="183.06021"
         style="font-style:normal;font-variant:normal;font-weight:normal;font-stretch:normal;font-size:4.93888903px;line-height:1;font-family:Nunito;-inkscape-font-specification:Nunito;text-align:start;text-anchor:start;fill:#ffffff;fill-opacity:1;stroke-width:0.26458332"
         id="tspan5081-6">* NTXd reward for completing task;</tspan></text>
    <a
       id="a5038-2"
       xlink:href="https://beta.singularitynet.io/servicedetails/org/snet/service/yolov3-object-detection"
       transform="matrix(0.801582,0,0,1,11.077704,-55.604213)"
       target="blank">
      <text
         id="text849-5-3-5-9"
         y="136.44437"
         x="78.201302"
         style="font-style:normal;font-weight:normal;font-size:3.17499995px;line-height:0.25;font-family:sans-serif;text-align:start;letter-spacing:0px;word-spacing:0px;text-anchor:start;fill:#000000;fill-opacity:1;stroke:none;stroke-width:0.26458332"
         xml:space="preserve"><tspan
           style="font-style:normal;font-variant:normal;font-weight:normal;font-stretch:normal;font-size:6.3499999px;line-height:1;font-family:Nunito;-inkscape-font-specification:Nunito;text-align:start;text-anchor:start;fill:#000000;fill-opacity:1;stroke-width:0.26458332"
           y="136.44437"
           x="78.201302"
           id="tspan847-3-6-3-1"
           sodipodi:role="line">     Service:</tspan><tspan
           id="tspan2079-5-2"
           style="font-style:normal;font-variant:normal;font-weight:normal;font-stretch:normal;font-size:6.3499999px;line-height:1;font-family:Nunito;-inkscape-font-specification:Nunito;text-align:start;text-anchor:start;fill:#000000;fill-opacity:1;stroke-width:0.26458332"
           y="142.79437"
           x="78.201302"
           sodipodi:role="line">Detect Objects</tspan></text>
    </a>
  </g>
</svg>
